…
```r
steps <- activity %>%
  filter(!is.na(steps)) %>%
  group_by(date) %>%
  summarize(steps = sum(steps)) %>%
  print
```

```
## `summarise()` ungrouping output (override with `.groups` argument)
```

```
## # A tibble: 53 x 2
##    date                steps
##    <dttm>              <dbl>
##  1 2012-10-02 00:00:00   126
##  2 2012-10-03 00:00:00 11352
##  3 2012-10-04 00:00:00 12116
##  4 2012-10-05 00:00:00 13294
##  5 2012-10-06 00:00:00 15420
##  6 2012-10-07 00:00:00 11015
##  7 2012-10-09 00:00:00 12811
##  8 2012-10-10 00:00:00  9900
##  9 2012-10-11 00:00:00 10304
## 10 2012-10-12 00:00:00 17382
## # ... with 43 more rows
```
…
```r
steps_full <- activity_full %>%
  filter(!is.na(steps)) %>%
  group_by(date) %>%
  summarize(steps = sum(steps)) %>%
  print
```

```
## `summarise()` ungrouping output (override with `.groups` argument)
```

```
## # A tibble: 61 x 2
##    date                 steps
##    <dttm>               <dbl>
##  1 2012-10-01 00:00:00 10766.
##  2 2012-10-02 00:00:00   126 
##  3 2012-10-03 00:00:00 11352 
##  4 2012-10-04 00:00:00 12116 
##  5 2012-10-05 00:00:00 13294 
##  6 2012-10-06 00:00:00 15420 
##  7 2012-10-07 00:00:00 11015 
##  8 2012-10-08 00:00:00 10766.
##  9 2012-10-09 00:00:00 12811 
## 10 2012-10-10 00:00:00  9900 
## # ... with 51 more rows
```
…
